<?xml version="1.0" encoding="utf-8" standalone="no"?>
<!DOCTYPE svg PUBLIC "-//W3C//DTD SVG 1.1//EN"
  "http://www.w3.org/Graphics/SVG/1.1/DTD/svg11.dtd">
<!-- Created with matplotlib (http://matplotlib.org/) -->
<svg height="432pt" version="1.1" viewBox="0 0 576 432" width="576pt" xmlns="http://www.w3.org/2000/svg" xmlns:xlink="http://www.w3.org/1999/xlink">
 <defs>
  <style type="text/css">
*{stroke-linecap:butt;stroke-linejoin:round;stroke-miterlimit:100000;}
  </style>
 </defs>
 <g id="figure_1">
  <g id="patch_1">
   <path d="M 0 432 
L 576 432 
L 576 0 
L 0 0 
z
" style="fill:#ffffff;"/>
  </g>
  <g id="axes_1">
   <g id="patch_2">
    <path d="M 72 388.8 
L 518.4 388.8 
L 518.4 43.2 
L 72 43.2 
z
" style="fill:#ffffff;"/>
   </g>
   <g id="PathCollection_1">
    <defs>
     <path d="M 0 2.236068 
C 0.593012 2.236068 1.161816 2.000462 1.581139 1.581139 
C 2.000462 1.161816 2.236068 0.593012 2.236068 0 
C 2.236068 -0.593012 2.000462 -1.161816 1.581139 -1.581139 
C 1.161816 -2.000462 0.593012 -2.236068 0 -2.236068 
C -0.593012 -2.236068 -1.161816 -2.000462 -1.581139 -1.581139 
C -2.000462 -1.161816 -2.236068 -0.593012 -2.236068 0 
C -2.236068 0.593012 -2.000462 1.161816 -1.581139 1.581139 
C -1.161816 2.000462 -0.593012 2.236068 0 2.236068 
z
" id="me54f5c76c0" style="stroke:#000000;"/>
    </defs>
    <g clip-path="url(#pb819e57f48)">
     <use style="fill:#0000ff;stroke:#000000;" x="109.2" xlink:href="#me54f5c76c0" y="337.776393372"/>
     <use style="fill:#0000ff;stroke:#000000;" x="115.505084746" xlink:href="#me54f5c76c0" y="337.473648919"/>
     <use style="fill:#0000ff;stroke:#000000;" x="121.810169492" xlink:href="#me54f5c76c0" y="337.115952895"/>
     <use style="fill:#0000ff;stroke:#000000;" x="128.115254237" xlink:href="#me54f5c76c0" y="336.693539443"/>
     <use style="fill:#0000ff;stroke:#000000;" x="134.420338983" xlink:href="#me54f5c76c0" y="336.194989903"/>
     <use style="fill:#0000ff;stroke:#000000;" x="140.725423729" xlink:href="#me54f5c76c0" y="335.606985938"/>
     <use style="fill:#0000ff;stroke:#000000;" x="147.030508474" xlink:href="#me54f5c76c0" y="334.914038995"/>
     <use style="fill:#0000ff;stroke:#000000;" x="153.33559322" xlink:href="#me54f5c76c0" y="334.098199596"/>
     <use style="fill:#0000ff;stroke:#000000;" x="159.640677966" xlink:href="#me54f5c76c0" y="333.138753089"/>
     <use style="fill:#0000ff;stroke:#000000;" x="165.945762712" xlink:href="#me54f5c76c0" y="332.011912954"/>
     <use style="fill:#0000ff;stroke:#000000;" x="172.250847458" xlink:href="#me54f5c76c0" y="330.690528675"/>
     <use style="fill:#0000ff;stroke:#000000;" x="178.555932203" xlink:href="#me54f5c76c0" y="329.143832999"/>
     <use style="fill:#0000ff;stroke:#000000;" x="184.861016949" xlink:href="#me54f5c76c0" y="327.33726311"/>
     <use style="fill:#0000ff;stroke:#000000;" x="191.166101695" xlink:href="#me54f5c76c0" y="325.232401931"/>
     <use style="fill:#0000ff;stroke:#000000;" x="197.471186441" xlink:href="#me54f5c76c0" y="322.787098934"/>
     <use style="fill:#0000ff;stroke:#000000;" x="203.776271187" xlink:href="#me54f5c76c0" y="319.955843401"/>
     <use style="fill:#0000ff;stroke:#000000;" x="210.081355932" xlink:href="#me54f5c76c0" y="316.690474996"/>
     <use style="fill:#0000ff;stroke:#000000;" x="216.386440678" xlink:href="#me54f5c76c0" y="312.941323492"/>
     <use style="fill:#0000ff;stroke:#000000;" x="222.691525424" xlink:href="#me54f5c76c0" y="308.658866799"/>
     <use style="fill:#0000ff;stroke:#000000;" x="228.996610169" xlink:href="#me54f5c76c0" y="303.795977963"/>
     <use style="fill:#0000ff;stroke:#000000;" x="235.301694915" xlink:href="#me54f5c76c0" y="298.310790881"/>
     <use style="fill:#0000ff;stroke:#000000;" x="241.606779661" xlink:href="#me54f5c76c0" y="292.17014531"/>
     <use style="fill:#0000ff;stroke:#000000;" x="247.911864407" xlink:href="#me54f5c76c0" y="285.353472386"/>
     <use style="fill:#0000ff;stroke:#000000;" x="254.216949153" xlink:href="#me54f5c76c0" y="277.856857301"/>
     <use style="fill:#0000ff;stroke:#000000;" x="260.522033898" xlink:href="#me54f5c76c0" y="269.696882049"/>
     <use style="fill:#0000ff;stroke:#000000;" x="266.827118644" xlink:href="#me54f5c76c0" y="260.913736377"/>
     <use style="fill:#0000ff;stroke:#000000;" x="273.13220339" xlink:href="#me54f5c76c0" y="251.573027503"/>
     <use style="fill:#0000ff;stroke:#000000;" x="279.437288136" xlink:href="#me54f5c76c0" y="241.765757979"/>
     <use style="fill:#0000ff;stroke:#000000;" x="285.742372881" xlink:href="#me54f5c76c0" y="231.606102607"/>
     <use style="fill:#0000ff;stroke:#000000;" x="292.047457627" xlink:href="#me54f5c76c0" y="221.226896358"/>
     <use style="fill:#0000ff;stroke:#000000;" x="298.352542373" xlink:href="#me54f5c76c0" y="210.773103642"/>
     <use style="fill:#0000ff;stroke:#000000;" x="304.657627119" xlink:href="#me54f5c76c0" y="200.393897393"/>
     <use style="fill:#0000ff;stroke:#000000;" x="310.962711864" xlink:href="#me54f5c76c0" y="190.234242021"/>
     <use style="fill:#0000ff;stroke:#000000;" x="317.26779661" xlink:href="#me54f5c76c0" y="180.426972497"/>
     <use style="fill:#0000ff;stroke:#000000;" x="323.572881356" xlink:href="#me54f5c76c0" y="171.086263623"/>
     <use style="fill:#0000ff;stroke:#000000;" x="329.877966102" xlink:href="#me54f5c76c0" y="162.303117951"/>
     <use style="fill:#0000ff;stroke:#000000;" x="336.183050847" xlink:href="#me54f5c76c0" y="154.143142699"/>
     <use style="fill:#0000ff;stroke:#000000;" x="342.488135593" xlink:href="#me54f5c76c0" y="146.646527614"/>
     <use style="fill:#0000ff;stroke:#000000;" x="348.793220339" xlink:href="#me54f5c76c0" y="139.82985469"/>
     <use style="fill:#0000ff;stroke:#000000;" x="355.098305085" xlink:href="#me54f5c76c0" y="133.689209119"/>
     <use style="fill:#0000ff;stroke:#000000;" x="361.403389831" xlink:href="#me54f5c76c0" y="128.204022037"/>
     <use style="fill:#0000ff;stroke:#000000;" x="367.708474576" xlink:href="#me54f5c76c0" y="123.341133201"/>
     <use style="fill:#0000ff;stroke:#000000;" x="374.013559322" xlink:href="#me54f5c76c0" y="119.058676508"/>
     <use style="fill:#0000ff;stroke:#000000;" x="380.318644068" xlink:href="#me54f5c76c0" y="115.309525004"/>
     <use style="fill:#0000ff;stroke:#000000;" x="386.623728813" xlink:href="#me54f5c76c0" y="112.044156599"/>
     <use style="fill:#0000ff;stroke:#000000;" x="392.928813559" xlink:href="#me54f5c76c0" y="109.212901066"/>
     <use style="fill:#0000ff;stroke:#000000;" x="399.233898305" xlink:href="#me54f5c76c0" y="106.767598069"/>
     <use style="fill:#0000ff;stroke:#000000;" x="405.538983051" xlink:href="#me54f5c76c0" y="104.662736889"/>
     <use style="fill:#0000ff;stroke:#000000;" x="411.844067797" xlink:href="#me54f5c76c0" y="102.856167001"/>
     <use style="fill:#0000ff;stroke:#000000;" x="418.149152542" xlink:href="#me54f5c76c0" y="101.309471325"/>
     <use style="fill:#0000ff;stroke:#000000;" x="424.454237288" xlink:href="#me54f5c76c0" y="99.9880870457"/>
     <use style="fill:#0000ff;stroke:#000000;" x="430.759322034" xlink:href="#me54f5c76c0" y="98.8612469105"/>
     <use style="fill:#0000ff;stroke:#000000;" x="437.06440678" xlink:href="#me54f5c76c0" y="97.9018004044"/>
     <use style="fill:#0000ff;stroke:#000000;" x="443.369491526" xlink:href="#me54f5c76c0" y="97.0859610049"/>
     <use style="fill:#0000ff;stroke:#000000;" x="449.674576271" xlink:href="#me54f5c76c0" y="96.3930140618"/>
     <use style="fill:#0000ff;stroke:#000000;" x="455.979661017" xlink:href="#me54f5c76c0" y="95.8050100966"/>
     <use style="fill:#0000ff;stroke:#000000;" x="462.284745763" xlink:href="#me54f5c76c0" y="95.3064605571"/>
     <use style="fill:#0000ff;stroke:#000000;" x="468.589830508" xlink:href="#me54f5c76c0" y="94.8840471049"/>
     <use style="fill:#0000ff;stroke:#000000;" x="474.894915254" xlink:href="#me54f5c76c0" y="94.5263510812"/>
     <use style="fill:#0000ff;stroke:#000000;" x="481.2" xlink:href="#me54f5c76c0" y="94.2236066281"/>
    </g>
   </g>
   <g id="line2d_1">
    <path clip-path="url(#pb819e57f48)" d="M 109.2 337.776447 
L 115.505085 337.473693 
L 121.810169 337.115985 
L 128.115254 336.693557 
L 134.420339 336.19499 
L 140.725424 335.606966 
L 147.030508 334.913996 
L 153.335593 334.098129 
L 159.640678 333.138652 
L 165.945763 332.011777 
L 172.250847 330.690355 
L 178.555932 329.143619 
L 184.861017 327.337005 
L 191.166102 325.232099 
L 197.471186 322.786751 
L 203.776271 319.955451 
L 210.081356 316.690042 
L 216.386441 312.940855 
L 222.691525 308.658371 
L 228.99661 303.795465 
L 235.301695 298.310274 
L 241.60678 292.169639 
L 247.911864 285.352994 
L 254.216949 277.856423 
L 260.522034 269.696507 
L 266.827119 260.913433 
L 273.132203 251.572803 
L 279.437288 241.765612 
L 285.742373 231.606029 
L 292.047458 221.22688 
L 298.352542 210.773123 
L 304.657627 200.393925 
L 310.962712 190.234249 
L 317.267797 180.426928 
L 323.572881 171.086142 
L 329.877966 162.302898 
L 336.183051 154.142812 
L 342.488136 146.646082 
L 348.79322 139.829301 
L 355.098305 133.688561 
L 361.40339 128.203302 
L 367.708475 123.340369 
L 374.013559 119.057901 
L 380.318644 115.308774 
L 386.623729 112.043466 
L 392.928814 109.212305 
L 399.233898 106.767128 
L 405.538983 104.662421 
L 411.844068 102.856026 
L 418.149153 101.309519 
L 424.454237 99.988329 
L 430.759322 98.861678 
L 437.064407 97.902404 
L 443.369492 97.086706 
L 449.674576 96.393854 
L 455.979661 95.805881 
L 462.284746 95.307276 
L 468.589831 94.884697 
L 474.894915 94.526697 
L 481.2 94.223478 
" style="fill:none;stroke:#ff0000;stroke-linecap:square;stroke-width:2.0;"/>
   </g>
   <g id="patch_3">
    <path d="M 72 388.8 
L 518.4 388.8 
" style="fill:none;stroke:#000000;stroke-linecap:square;stroke-linejoin:miter;"/>
   </g>
   <g id="patch_4">
    <path d="M 518.4 388.8 
L 518.4 43.2 
" style="fill:none;stroke:#000000;stroke-linecap:square;stroke-linejoin:miter;"/>
   </g>
   <g id="patch_5">
    <path d="M 72 43.2 
L 518.4 43.2 
" style="fill:none;stroke:#000000;stroke-linecap:square;stroke-linejoin:miter;"/>
   </g>
   <g id="patch_6">
    <path d="M 72 388.8 
L 72 43.2 
" style="fill:none;stroke:#000000;stroke-linecap:square;stroke-linejoin:miter;"/>
   </g>
   <g id="matplotlib.axis_1">
    <g id="xtick_1">
     <g id="line2d_2">
      <defs>
       <path d="M 0 0 
L 0 -4 
" id="m50c489faa8" style="stroke:#000000;stroke-width:0.5;"/>
      </defs>
      <g>
       <use style="stroke:#000000;stroke-width:0.5;" x="72.0" xlink:href="#m50c489faa8" y="388.8"/>
      </g>
     </g>
     <g id="line2d_3">
      <defs>
       <path d="M 0 0 
L 0 4 
" id="m51bd2992c3" style="stroke:#000000;stroke-width:0.5;"/>
      </defs>
      <g>
       <use style="stroke:#000000;stroke-width:0.5;" x="72.0" xlink:href="#m51bd2992c3" y="43.2"/>
      </g>
     </g>
     <g id="text_1">
      <!-- −6 -->
      <defs>
       <path d="M 33.015625 40.375 
Q 26.375 40.375 22.484375 35.828125 
Q 18.609375 31.296875 18.609375 23.390625 
Q 18.609375 15.53125 22.484375 10.953125 
Q 26.375 6.390625 33.015625 6.390625 
Q 39.65625 6.390625 43.53125 10.953125 
Q 47.40625 15.53125 47.40625 23.390625 
Q 47.40625 31.296875 43.53125 35.828125 
Q 39.65625 40.375 33.015625 40.375 
M 52.59375 71.296875 
L 52.59375 62.3125 
Q 48.875 64.0625 45.09375 64.984375 
Q 41.3125 65.921875 37.59375 65.921875 
Q 27.828125 65.921875 22.671875 59.328125 
Q 17.53125 52.734375 16.796875 39.40625 
Q 19.671875 43.65625 24.015625 45.921875 
Q 28.375 48.1875 33.59375 48.1875 
Q 44.578125 48.1875 50.953125 41.515625 
Q 57.328125 34.859375 57.328125 23.390625 
Q 57.328125 12.15625 50.6875 5.359375 
Q 44.046875 -1.421875 33.015625 -1.421875 
Q 20.359375 -1.421875 13.671875 8.265625 
Q 6.984375 17.96875 6.984375 36.375 
Q 6.984375 53.65625 15.1875 63.9375 
Q 23.390625 74.21875 37.203125 74.21875 
Q 40.921875 74.21875 44.703125 73.484375 
Q 48.484375 72.75 52.59375 71.296875 
" id="BitstreamVeraSans-Roman-36"/>
       <path d="M 10.59375 35.5 
L 73.1875 35.5 
L 73.1875 27.203125 
L 10.59375 27.203125 
z
" id="BitstreamVeraSans-Roman-2212"/>
      </defs>
      <g transform="translate(63.1546875 401.918125)scale(0.12 -0.12)">
       <use xlink:href="#BitstreamVeraSans-Roman-2212"/>
       <use x="83.7890625" xlink:href="#BitstreamVeraSans-Roman-36"/>
      </g>
     </g>
    </g>
    <g id="xtick_2">
     <g id="line2d_4">
      <g>
       <use style="stroke:#000000;stroke-width:0.5;" x="146.4" xlink:href="#m50c489faa8" y="388.8"/>
      </g>
     </g>
     <g id="line2d_5">
      <g>
       <use style="stroke:#000000;stroke-width:0.5;" x="146.4" xlink:href="#m51bd2992c3" y="43.2"/>
      </g>
     </g>
     <g id="text_2">
      <!-- −4 -->
      <defs>
       <path d="M 37.796875 64.3125 
L 12.890625 25.390625 
L 37.796875 25.390625 
z
M 35.203125 72.90625 
L 47.609375 72.90625 
L 47.609375 25.390625 
L 58.015625 25.390625 
L 58.015625 17.1875 
L 47.609375 17.1875 
L 47.609375 0 
L 37.796875 0 
L 37.796875 17.1875 
L 4.890625 17.1875 
L 4.890625 26.703125 
z
" id="BitstreamVeraSans-Roman-34"/>
      </defs>
      <g transform="translate(137.5546875 401.918125)scale(0.12 -0.12)">
       <use xlink:href="#BitstreamVeraSans-Roman-2212"/>
       <use x="83.7890625" xlink:href="#BitstreamVeraSans-Roman-34"/>
      </g>
     </g>
    </g>
    <g id="xtick_3">
     <g id="line2d_6">
      <g>
       <use style="stroke:#000000;stroke-width:0.5;" x="220.8" xlink:href="#m50c489faa8" y="388.8"/>
      </g>
     </g>
     <g id="line2d_7">
      <g>
       <use style="stroke:#000000;stroke-width:0.5;" x="220.8" xlink:href="#m51bd2992c3" y="43.2"/>
      </g>
     </g>
     <g id="text_3">
      <!-- −2 -->
      <defs>
       <path d="M 19.1875 8.296875 
L 53.609375 8.296875 
L 53.609375 0 
L 7.328125 0 
L 7.328125 8.296875 
Q 12.9375 14.109375 22.625 23.890625 
Q 32.328125 33.6875 34.8125 36.53125 
Q 39.546875 41.84375 41.421875 45.53125 
Q 43.3125 49.21875 43.3125 52.78125 
Q 43.3125 58.59375 39.234375 62.25 
Q 35.15625 65.921875 28.609375 65.921875 
Q 23.96875 65.921875 18.8125 64.3125 
Q 13.671875 62.703125 7.8125 59.421875 
L 7.8125 69.390625 
Q 13.765625 71.78125 18.9375 73 
Q 24.125 74.21875 28.421875 74.21875 
Q 39.75 74.21875 46.484375 68.546875 
Q 53.21875 62.890625 53.21875 53.421875 
Q 53.21875 48.921875 51.53125 44.890625 
Q 49.859375 40.875 45.40625 35.40625 
Q 44.1875 33.984375 37.640625 27.21875 
Q 31.109375 20.453125 19.1875 8.296875 
" id="BitstreamVeraSans-Roman-32"/>
      </defs>
      <g transform="translate(211.9546875 401.918125)scale(0.12 -0.12)">
       <use xlink:href="#BitstreamVeraSans-Roman-2212"/>
       <use x="83.7890625" xlink:href="#BitstreamVeraSans-Roman-32"/>
      </g>
     </g>
    </g>
    <g id="xtick_4">
     <g id="line2d_8">
      <g>
       <use style="stroke:#000000;stroke-width:0.5;" x="295.2" xlink:href="#m50c489faa8" y="388.8"/>
      </g>
     </g>
     <g id="line2d_9">
      <g>
       <use style="stroke:#000000;stroke-width:0.5;" x="295.2" xlink:href="#m51bd2992c3" y="43.2"/>
      </g>
     </g>
     <g id="text_4">
      <!-- 0 -->
      <defs>
       <path d="M 31.78125 66.40625 
Q 24.171875 66.40625 20.328125 58.90625 
Q 16.5 51.421875 16.5 36.375 
Q 16.5 21.390625 20.328125 13.890625 
Q 24.171875 6.390625 31.78125 6.390625 
Q 39.453125 6.390625 43.28125 13.890625 
Q 47.125 21.390625 47.125 36.375 
Q 47.125 51.421875 43.28125 58.90625 
Q 39.453125 66.40625 31.78125 66.40625 
M 31.78125 74.21875 
Q 44.046875 74.21875 50.515625 64.515625 
Q 56.984375 54.828125 56.984375 36.375 
Q 56.984375 17.96875 50.515625 8.265625 
Q 44.046875 -1.421875 31.78125 -1.421875 
Q 19.53125 -1.421875 13.0625 8.265625 
Q 6.59375 17.96875 6.59375 36.375 
Q 6.59375 54.828125 13.0625 64.515625 
Q 19.53125 74.21875 31.78125 74.21875 
" id="BitstreamVeraSans-Roman-30"/>
      </defs>
      <g transform="translate(291.3825 401.918125)scale(0.12 -0.12)">
       <use xlink:href="#BitstreamVeraSans-Roman-30"/>
      </g>
     </g>
    </g>
    <g id="xtick_5">
     <g id="line2d_10">
      <g>
       <use style="stroke:#000000;stroke-width:0.5;" x="369.6" xlink:href="#m50c489faa8" y="388.8"/>
      </g>
     </g>
     <g id="line2d_11">
      <g>
       <use style="stroke:#000000;stroke-width:0.5;" x="369.6" xlink:href="#m51bd2992c3" y="43.2"/>
      </g>
     </g>
     <g id="text_5">
      <!-- 2 -->
      <g transform="translate(365.7825 401.918125)scale(0.12 -0.12)">
       <use xlink:href="#BitstreamVeraSans-Roman-32"/>
      </g>
     </g>
    </g>
    <g id="xtick_6">
     <g id="line2d_12">
      <g>
       <use style="stroke:#000000;stroke-width:0.5;" x="444.0" xlink:href="#m50c489faa8" y="388.8"/>
      </g>
     </g>
     <g id="line2d_13">
      <g>
       <use style="stroke:#000000;stroke-width:0.5;" x="444.0" xlink:href="#m51bd2992c3" y="43.2"/>
      </g>
     </g>
     <g id="text_6">
      <!-- 4 -->
      <g transform="translate(440.1825 401.918125)scale(0.12 -0.12)">
       <use xlink:href="#BitstreamVeraSans-Roman-34"/>
      </g>
     </g>
    </g>
    <g id="xtick_7">
     <g id="line2d_14">
      <g>
       <use style="stroke:#000000;stroke-width:0.5;" x="518.4" xlink:href="#m50c489faa8" y="388.8"/>
      </g>
     </g>
     <g id="line2d_15">
      <g>
       <use style="stroke:#000000;stroke-width:0.5;" x="518.4" xlink:href="#m51bd2992c3" y="43.2"/>
      </g>
     </g>
     <g id="text_7">
      <!-- 6 -->
      <g transform="translate(514.5825 401.918125)scale(0.12 -0.12)">
       <use xlink:href="#BitstreamVeraSans-Roman-36"/>
      </g>
     </g>
    </g>
    <g id="text_8">
     <!-- x -->
     <defs>
      <path d="M 54.890625 54.6875 
L 35.109375 28.078125 
L 55.90625 0 
L 45.3125 0 
L 29.390625 21.484375 
L 13.484375 0 
L 2.875 0 
L 24.125 28.609375 
L 4.6875 54.6875 
L 15.28125 54.6875 
L 29.78125 35.203125 
L 44.28125 54.6875 
z
" id="BitstreamVeraSans-Roman-78"/>
     </defs>
     <g transform="translate(291.64875 418.531875)scale(0.12 -0.12)">
      <use xlink:href="#BitstreamVeraSans-Roman-78"/>
     </g>
    </g>
   </g>
   <g id="matplotlib.axis_2">
    <g id="ytick_1">
     <g id="line2d_16">
      <defs>
       <path d="M 0 0 
L 4 0 
" id="m94b8dcaa92" style="stroke:#000000;stroke-width:0.5;"/>
      </defs>
      <g>
       <use style="stroke:#000000;stroke-width:0.5;" x="72.0" xlink:href="#m94b8dcaa92" y="388.8"/>
      </g>
     </g>
     <g id="line2d_17">
      <defs>
       <path d="M 0 0 
L -4 0 
" id="m4af69fcf8a" style="stroke:#000000;stroke-width:0.5;"/>
      </defs>
      <g>
       <use style="stroke:#000000;stroke-width:0.5;" x="518.4" xlink:href="#m4af69fcf8a" y="388.8"/>
      </g>
     </g>
     <g id="text_9">
      <!-- −0.2 -->
      <defs>
       <path d="M 10.6875 12.40625 
L 21 12.40625 
L 21 0 
L 10.6875 0 
z
" id="BitstreamVeraSans-Roman-2e"/>
      </defs>
      <g transform="translate(38.860625 392.11125)scale(0.12 -0.12)">
       <use xlink:href="#BitstreamVeraSans-Roman-2212"/>
       <use x="83.7890625" xlink:href="#BitstreamVeraSans-Roman-30"/>
       <use x="147.412109375" xlink:href="#BitstreamVeraSans-Roman-2e"/>
       <use x="179.19921875" xlink:href="#BitstreamVeraSans-Roman-32"/>
      </g>
     </g>
    </g>
    <g id="ytick_2">
     <g id="line2d_18">
      <g>
       <use style="stroke:#000000;stroke-width:0.5;" x="72.0" xlink:href="#m94b8dcaa92" y="339.428571429"/>
      </g>
     </g>
     <g id="line2d_19">
      <g>
       <use style="stroke:#000000;stroke-width:0.5;" x="518.4" xlink:href="#m4af69fcf8a" y="339.428571429"/>
      </g>
     </g>
     <g id="text_10">
      <!-- 0.0 -->
      <g transform="translate(48.91625 342.739821429)scale(0.12 -0.12)">
       <use xlink:href="#BitstreamVeraSans-Roman-30"/>
       <use x="63.623046875" xlink:href="#BitstreamVeraSans-Roman-2e"/>
       <use x="95.41015625" xlink:href="#BitstreamVeraSans-Roman-30"/>
      </g>
     </g>
    </g>
    <g id="ytick_3">
     <g id="line2d_20">
      <g>
       <use style="stroke:#000000;stroke-width:0.5;" x="72.0" xlink:href="#m94b8dcaa92" y="290.057142857"/>
      </g>
     </g>
     <g id="line2d_21">
      <g>
       <use style="stroke:#000000;stroke-width:0.5;" x="518.4" xlink:href="#m4af69fcf8a" y="290.057142857"/>
      </g>
     </g>
     <g id="text_11">
      <!-- 0.2 -->
      <g transform="translate(48.91625 293.368392857)scale(0.12 -0.12)">
       <use xlink:href="#BitstreamVeraSans-Roman-30"/>
       <use x="63.623046875" xlink:href="#BitstreamVeraSans-Roman-2e"/>
       <use x="95.41015625" xlink:href="#BitstreamVeraSans-Roman-32"/>
      </g>
     </g>
    </g>
    <g id="ytick_4">
     <g id="line2d_22">
      <g>
       <use style="stroke:#000000;stroke-width:0.5;" x="72.0" xlink:href="#m94b8dcaa92" y="240.685714286"/>
      </g>
     </g>
     <g id="line2d_23">
      <g>
       <use style="stroke:#000000;stroke-width:0.5;" x="518.4" xlink:href="#m4af69fcf8a" y="240.685714286"/>
      </g>
     </g>
     <g id="text_12">
      <!-- 0.4 -->
      <g transform="translate(48.91625 243.996964286)scale(0.12 -0.12)">
       <use xlink:href="#BitstreamVeraSans-Roman-30"/>
       <use x="63.623046875" xlink:href="#BitstreamVeraSans-Roman-2e"/>
       <use x="95.41015625" xlink:href="#BitstreamVeraSans-Roman-34"/>
      </g>
     </g>
    </g>
    <g id="ytick_5">
     <g id="line2d_24">
      <g>
       <use style="stroke:#000000;stroke-width:0.5;" x="72.0" xlink:href="#m94b8dcaa92" y="191.314285714"/>
      </g>
     </g>
     <g id="line2d_25">
      <g>
       <use style="stroke:#000000;stroke-width:0.5;" x="518.4" xlink:href="#m4af69fcf8a" y="191.314285714"/>
      </g>
     </g>
     <g id="text_13">
      <!-- 0.6 -->
      <g transform="translate(48.91625 194.625535714)scale(0.12 -0.12)">
       <use xlink:href="#BitstreamVeraSans-Roman-30"/>
       <use x="63.623046875" xlink:href="#BitstreamVeraSans-Roman-2e"/>
       <use x="95.41015625" xlink:href="#BitstreamVeraSans-Roman-36"/>
      </g>
     </g>
    </g>
    <g id="ytick_6">
     <g id="line2d_26">
      <g>
       <use style="stroke:#000000;stroke-width:0.5;" x="72.0" xlink:href="#m94b8dcaa92" y="141.942857143"/>
      </g>
     </g>
     <g id="line2d_27">
      <g>
       <use style="stroke:#000000;stroke-width:0.5;" x="518.4" xlink:href="#m4af69fcf8a" y="141.942857143"/>
      </g>
     </g>
     <g id="text_14">
      <!-- 0.8 -->
      <defs>
       <path d="M 31.78125 34.625 
Q 24.75 34.625 20.71875 30.859375 
Q 16.703125 27.09375 16.703125 20.515625 
Q 16.703125 13.921875 20.71875 10.15625 
Q 24.75 6.390625 31.78125 6.390625 
Q 38.8125 6.390625 42.859375 10.171875 
Q 46.921875 13.96875 46.921875 20.515625 
Q 46.921875 27.09375 42.890625 30.859375 
Q 38.875 34.625 31.78125 34.625 
M 21.921875 38.8125 
Q 15.578125 40.375 12.03125 44.71875 
Q 8.5 49.078125 8.5 55.328125 
Q 8.5 64.0625 14.71875 69.140625 
Q 20.953125 74.21875 31.78125 74.21875 
Q 42.671875 74.21875 48.875 69.140625 
Q 55.078125 64.0625 55.078125 55.328125 
Q 55.078125 49.078125 51.53125 44.71875 
Q 48 40.375 41.703125 38.8125 
Q 48.828125 37.15625 52.796875 32.3125 
Q 56.78125 27.484375 56.78125 20.515625 
Q 56.78125 9.90625 50.3125 4.234375 
Q 43.84375 -1.421875 31.78125 -1.421875 
Q 19.734375 -1.421875 13.25 4.234375 
Q 6.78125 9.90625 6.78125 20.515625 
Q 6.78125 27.484375 10.78125 32.3125 
Q 14.796875 37.15625 21.921875 38.8125 
M 18.3125 54.390625 
Q 18.3125 48.734375 21.84375 45.5625 
Q 25.390625 42.390625 31.78125 42.390625 
Q 38.140625 42.390625 41.71875 45.5625 
Q 45.3125 48.734375 45.3125 54.390625 
Q 45.3125 60.0625 41.71875 63.234375 
Q 38.140625 66.40625 31.78125 66.40625 
Q 25.390625 66.40625 21.84375 63.234375 
Q 18.3125 60.0625 18.3125 54.390625 
" id="BitstreamVeraSans-Roman-38"/>
      </defs>
      <g transform="translate(48.91625 145.254107143)scale(0.12 -0.12)">
       <use xlink:href="#BitstreamVeraSans-Roman-30"/>
       <use x="63.623046875" xlink:href="#BitstreamVeraSans-Roman-2e"/>
       <use x="95.41015625" xlink:href="#BitstreamVeraSans-Roman-38"/>
      </g>
     </g>
    </g>
    <g id="ytick_7">
     <g id="line2d_28">
      <g>
       <use style="stroke:#000000;stroke-width:0.5;" x="72.0" xlink:href="#m94b8dcaa92" y="92.5714285714"/>
      </g>
     </g>
     <g id="line2d_29">
      <g>
       <use style="stroke:#000000;stroke-width:0.5;" x="518.4" xlink:href="#m4af69fcf8a" y="92.5714285714"/>
      </g>
     </g>
     <g id="text_15">
      <!-- 1.0 -->
      <defs>
       <path d="M 12.40625 8.296875 
L 28.515625 8.296875 
L 28.515625 63.921875 
L 10.984375 60.40625 
L 10.984375 69.390625 
L 28.421875 72.90625 
L 38.28125 72.90625 
L 38.28125 8.296875 
L 54.390625 8.296875 
L 54.390625 0 
L 12.40625 0 
z
" id="BitstreamVeraSans-Roman-31"/>
      </defs>
      <g transform="translate(48.91625 95.8826785714)scale(0.12 -0.12)">
       <use xlink:href="#BitstreamVeraSans-Roman-31"/>
       <use x="63.623046875" xlink:href="#BitstreamVeraSans-Roman-2e"/>
       <use x="95.41015625" xlink:href="#BitstreamVeraSans-Roman-30"/>
      </g>
     </g>
    </g>
    <g id="ytick_8">
     <g id="line2d_30">
      <g>
       <use style="stroke:#000000;stroke-width:0.5;" x="72.0" xlink:href="#m94b8dcaa92" y="43.2"/>
      </g>
     </g>
     <g id="line2d_31">
      <g>
       <use style="stroke:#000000;stroke-width:0.5;" x="518.4" xlink:href="#m4af69fcf8a" y="43.2"/>
      </g>
     </g>
     <g id="text_16">
      <!-- 1.2 -->
      <g transform="translate(48.91625 46.51125)scale(0.12 -0.12)">
       <use xlink:href="#BitstreamVeraSans-Roman-31"/>
       <use x="63.623046875" xlink:href="#BitstreamVeraSans-Roman-2e"/>
       <use x="95.41015625" xlink:href="#BitstreamVeraSans-Roman-32"/>
      </g>
     </g>
    </g>
    <g id="text_17">
     <!-- y -->
     <defs>
      <path d="M 32.171875 -5.078125 
Q 28.375 -14.84375 24.75 -17.8125 
Q 21.140625 -20.796875 15.09375 -20.796875 
L 7.90625 -20.796875 
L 7.90625 -13.28125 
L 13.1875 -13.28125 
Q 16.890625 -13.28125 18.9375 -11.515625 
Q 21 -9.765625 23.484375 -3.21875 
L 25.09375 0.875 
L 2.984375 54.6875 
L 12.5 54.6875 
L 29.59375 11.921875 
L 46.6875 54.6875 
L 56.203125 54.6875 
z
" id="BitstreamVeraSans-Roman-79"/>
     </defs>
     <g transform="translate(31.365 219.55125)rotate(-90.0)scale(0.12 -0.12)">
      <use xlink:href="#BitstreamVeraSans-Roman-79"/>
     </g>
    </g>
   </g>
   <g id="text_18">
    <!-- Neural net solution - log function -->
    <defs>
     <path d="M 34.28125 27.484375 
Q 23.390625 27.484375 19.1875 25 
Q 14.984375 22.515625 14.984375 16.5 
Q 14.984375 11.71875 18.140625 8.90625 
Q 21.296875 6.109375 26.703125 6.109375 
Q 34.1875 6.109375 38.703125 11.40625 
Q 43.21875 16.703125 43.21875 25.484375 
L 43.21875 27.484375 
z
M 52.203125 31.203125 
L 52.203125 0 
L 43.21875 0 
L 43.21875 8.296875 
Q 40.140625 3.328125 35.546875 0.953125 
Q 30.953125 -1.421875 24.3125 -1.421875 
Q 15.921875 -1.421875 10.953125 3.296875 
Q 6 8.015625 6 15.921875 
Q 6 25.140625 12.171875 29.828125 
Q 18.359375 34.515625 30.609375 34.515625 
L 43.21875 34.515625 
L 43.21875 35.40625 
Q 43.21875 41.609375 39.140625 45 
Q 35.0625 48.390625 27.6875 48.390625 
Q 23 48.390625 18.546875 47.265625 
Q 14.109375 46.140625 10.015625 43.890625 
L 10.015625 52.203125 
Q 14.9375 54.109375 19.578125 55.046875 
Q 24.21875 56 28.609375 56 
Q 40.484375 56 46.34375 49.84375 
Q 52.203125 43.703125 52.203125 31.203125 
" id="BitstreamVeraSans-Roman-61"/>
     <path d="M 9.421875 54.6875 
L 18.40625 54.6875 
L 18.40625 0 
L 9.421875 0 
z
M 9.421875 75.984375 
L 18.40625 75.984375 
L 18.40625 64.59375 
L 9.421875 64.59375 
z
" id="BitstreamVeraSans-Roman-69"/>
     <path d="M 44.28125 53.078125 
L 44.28125 44.578125 
Q 40.484375 46.53125 36.375 47.5 
Q 32.28125 48.484375 27.875 48.484375 
Q 21.1875 48.484375 17.84375 46.4375 
Q 14.5 44.390625 14.5 40.28125 
Q 14.5 37.15625 16.890625 35.375 
Q 19.28125 33.59375 26.515625 31.984375 
L 29.59375 31.296875 
Q 39.15625 29.25 43.1875 25.515625 
Q 47.21875 21.78125 47.21875 15.09375 
Q 47.21875 7.46875 41.1875 3.015625 
Q 35.15625 -1.421875 24.609375 -1.421875 
Q 20.21875 -1.421875 15.453125 -0.5625 
Q 10.6875 0.296875 5.421875 2 
L 5.421875 11.28125 
Q 10.40625 8.6875 15.234375 7.390625 
Q 20.0625 6.109375 24.8125 6.109375 
Q 31.15625 6.109375 34.5625 8.28125 
Q 37.984375 10.453125 37.984375 14.40625 
Q 37.984375 18.0625 35.515625 20.015625 
Q 33.0625 21.96875 24.703125 23.78125 
L 21.578125 24.515625 
Q 13.234375 26.265625 9.515625 29.90625 
Q 5.8125 33.546875 5.8125 39.890625 
Q 5.8125 47.609375 11.28125 51.796875 
Q 16.75 56 26.8125 56 
Q 31.78125 56 36.171875 55.265625 
Q 40.578125 54.546875 44.28125 53.078125 
" id="BitstreamVeraSans-Roman-73"/>
     <path d="M 18.3125 70.21875 
L 18.3125 54.6875 
L 36.8125 54.6875 
L 36.8125 47.703125 
L 18.3125 47.703125 
L 18.3125 18.015625 
Q 18.3125 11.328125 20.140625 9.421875 
Q 21.96875 7.515625 27.59375 7.515625 
L 36.8125 7.515625 
L 36.8125 0 
L 27.59375 0 
Q 17.1875 0 13.234375 3.875 
Q 9.28125 7.765625 9.28125 18.015625 
L 9.28125 47.703125 
L 2.6875 47.703125 
L 2.6875 54.6875 
L 9.28125 54.6875 
L 9.28125 70.21875 
z
" id="BitstreamVeraSans-Roman-74"/>
     <path d="M 54.890625 33.015625 
L 54.890625 0 
L 45.90625 0 
L 45.90625 32.71875 
Q 45.90625 40.484375 42.875 44.328125 
Q 39.84375 48.1875 33.796875 48.1875 
Q 26.515625 48.1875 22.3125 43.546875 
Q 18.109375 38.921875 18.109375 30.90625 
L 18.109375 0 
L 9.078125 0 
L 9.078125 54.6875 
L 18.109375 54.6875 
L 18.109375 46.1875 
Q 21.34375 51.125 25.703125 53.5625 
Q 30.078125 56 35.796875 56 
Q 45.21875 56 50.046875 50.171875 
Q 54.890625 44.34375 54.890625 33.015625 
" id="BitstreamVeraSans-Roman-6e"/>
     <path d="M 9.8125 72.90625 
L 23.09375 72.90625 
L 55.421875 11.921875 
L 55.421875 72.90625 
L 64.984375 72.90625 
L 64.984375 0 
L 51.703125 0 
L 19.390625 60.984375 
L 19.390625 0 
L 9.8125 0 
z
" id="BitstreamVeraSans-Roman-4e"/>
     <path d="M 30.609375 48.390625 
Q 23.390625 48.390625 19.1875 42.75 
Q 14.984375 37.109375 14.984375 27.296875 
Q 14.984375 17.484375 19.15625 11.84375 
Q 23.34375 6.203125 30.609375 6.203125 
Q 37.796875 6.203125 41.984375 11.859375 
Q 46.1875 17.53125 46.1875 27.296875 
Q 46.1875 37.015625 41.984375 42.703125 
Q 37.796875 48.390625 30.609375 48.390625 
M 30.609375 56 
Q 42.328125 56 49.015625 48.375 
Q 55.71875 40.765625 55.71875 27.296875 
Q 55.71875 13.875 49.015625 6.21875 
Q 42.328125 -1.421875 30.609375 -1.421875 
Q 18.84375 -1.421875 12.171875 6.21875 
Q 5.515625 13.875 5.515625 27.296875 
Q 5.515625 40.765625 12.171875 48.375 
Q 18.84375 56 30.609375 56 
" id="BitstreamVeraSans-Roman-6f"/>
     <path d="M 8.5 21.578125 
L 8.5 54.6875 
L 17.484375 54.6875 
L 17.484375 21.921875 
Q 17.484375 14.15625 20.5 10.265625 
Q 23.53125 6.390625 29.59375 6.390625 
Q 36.859375 6.390625 41.078125 11.03125 
Q 45.3125 15.671875 45.3125 23.6875 
L 45.3125 54.6875 
L 54.296875 54.6875 
L 54.296875 0 
L 45.3125 0 
L 45.3125 8.40625 
Q 42.046875 3.421875 37.71875 1 
Q 33.40625 -1.421875 27.6875 -1.421875 
Q 18.265625 -1.421875 13.375 4.4375 
Q 8.5 10.296875 8.5 21.578125 
" id="BitstreamVeraSans-Roman-75"/>
     <path id="BitstreamVeraSans-Roman-20"/>
     <path d="M 48.78125 52.59375 
L 48.78125 44.1875 
Q 44.96875 46.296875 41.140625 47.34375 
Q 37.3125 48.390625 33.40625 48.390625 
Q 24.65625 48.390625 19.8125 42.84375 
Q 14.984375 37.3125 14.984375 27.296875 
Q 14.984375 17.28125 19.8125 11.734375 
Q 24.65625 6.203125 33.40625 6.203125 
Q 37.3125 6.203125 41.140625 7.25 
Q 44.96875 8.296875 48.78125 10.40625 
L 48.78125 2.09375 
Q 45.015625 0.34375 40.984375 -0.53125 
Q 36.96875 -1.421875 32.421875 -1.421875 
Q 20.0625 -1.421875 12.78125 6.34375 
Q 5.515625 14.109375 5.515625 27.296875 
Q 5.515625 40.671875 12.859375 48.328125 
Q 20.21875 56 33.015625 56 
Q 37.15625 56 41.109375 55.140625 
Q 45.0625 54.296875 48.78125 52.59375 
" id="BitstreamVeraSans-Roman-63"/>
     <path d="M 45.40625 27.984375 
Q 45.40625 37.75 41.375 43.109375 
Q 37.359375 48.484375 30.078125 48.484375 
Q 22.859375 48.484375 18.828125 43.109375 
Q 14.796875 37.75 14.796875 27.984375 
Q 14.796875 18.265625 18.828125 12.890625 
Q 22.859375 7.515625 30.078125 7.515625 
Q 37.359375 7.515625 41.375 12.890625 
Q 45.40625 18.265625 45.40625 27.984375 
M 54.390625 6.78125 
Q 54.390625 -7.171875 48.1875 -13.984375 
Q 42 -20.796875 29.203125 -20.796875 
Q 24.46875 -20.796875 20.265625 -20.09375 
Q 16.0625 -19.390625 12.109375 -17.921875 
L 12.109375 -9.1875 
Q 16.0625 -11.328125 19.921875 -12.34375 
Q 23.78125 -13.375 27.78125 -13.375 
Q 36.625 -13.375 41.015625 -8.765625 
Q 45.40625 -4.15625 45.40625 5.171875 
L 45.40625 9.625 
Q 42.625 4.78125 38.28125 2.390625 
Q 33.9375 0 27.875 0 
Q 17.828125 0 11.671875 7.65625 
Q 5.515625 15.328125 5.515625 27.984375 
Q 5.515625 40.671875 11.671875 48.328125 
Q 17.828125 56 27.875 56 
Q 33.9375 56 38.28125 53.609375 
Q 42.625 51.21875 45.40625 46.390625 
L 45.40625 54.6875 
L 54.390625 54.6875 
z
" id="BitstreamVeraSans-Roman-67"/>
     <path d="M 37.109375 75.984375 
L 37.109375 68.5 
L 28.515625 68.5 
Q 23.6875 68.5 21.796875 66.546875 
Q 19.921875 64.59375 19.921875 59.515625 
L 19.921875 54.6875 
L 34.71875 54.6875 
L 34.71875 47.703125 
L 19.921875 47.703125 
L 19.921875 0 
L 10.890625 0 
L 10.890625 47.703125 
L 2.296875 47.703125 
L 2.296875 54.6875 
L 10.890625 54.6875 
L 10.890625 58.5 
Q 10.890625 67.625 15.140625 71.796875 
Q 19.390625 75.984375 28.609375 75.984375 
z
" id="BitstreamVeraSans-Roman-66"/>
     <path d="M 56.203125 29.59375 
L 56.203125 25.203125 
L 14.890625 25.203125 
Q 15.484375 15.921875 20.484375 11.0625 
Q 25.484375 6.203125 34.421875 6.203125 
Q 39.59375 6.203125 44.453125 7.46875 
Q 49.3125 8.734375 54.109375 11.28125 
L 54.109375 2.78125 
Q 49.265625 0.734375 44.1875 -0.34375 
Q 39.109375 -1.421875 33.890625 -1.421875 
Q 20.796875 -1.421875 13.15625 6.1875 
Q 5.515625 13.8125 5.515625 26.8125 
Q 5.515625 40.234375 12.765625 48.109375 
Q 20.015625 56 32.328125 56 
Q 43.359375 56 49.78125 48.890625 
Q 56.203125 41.796875 56.203125 29.59375 
M 47.21875 32.234375 
Q 47.125 39.59375 43.09375 43.984375 
Q 39.0625 48.390625 32.421875 48.390625 
Q 24.90625 48.390625 20.390625 44.140625 
Q 15.875 39.890625 15.1875 32.171875 
z
" id="BitstreamVeraSans-Roman-65"/>
     <path d="M 4.890625 31.390625 
L 31.203125 31.390625 
L 31.203125 23.390625 
L 4.890625 23.390625 
z
" id="BitstreamVeraSans-Roman-2d"/>
     <path d="M 9.421875 75.984375 
L 18.40625 75.984375 
L 18.40625 0 
L 9.421875 0 
z
" id="BitstreamVeraSans-Roman-6c"/>
     <path d="M 41.109375 46.296875 
Q 39.59375 47.171875 37.8125 47.578125 
Q 36.03125 48 33.890625 48 
Q 26.265625 48 22.1875 43.046875 
Q 18.109375 38.09375 18.109375 28.8125 
L 18.109375 0 
L 9.078125 0 
L 9.078125 54.6875 
L 18.109375 54.6875 
L 18.109375 46.1875 
Q 20.953125 51.171875 25.484375 53.578125 
Q 30.03125 56 36.53125 56 
Q 37.453125 56 38.578125 55.875 
Q 39.703125 55.765625 41.0625 55.515625 
z
" id="BitstreamVeraSans-Roman-72"/>
    </defs>
    <g transform="translate(176.69475 38.2)scale(0.144 -0.144)">
     <use xlink:href="#BitstreamVeraSans-Roman-4e"/>
     <use x="74.8046875" xlink:href="#BitstreamVeraSans-Roman-65"/>
     <use x="136.328125" xlink:href="#BitstreamVeraSans-Roman-75"/>
     <use x="199.70703125" xlink:href="#BitstreamVeraSans-Roman-72"/>
     <use x="240.8203125" xlink:href="#BitstreamVeraSans-Roman-61"/>
     <use x="302.099609375" xlink:href="#BitstreamVeraSans-Roman-6c"/>
     <use x="329.8828125" xlink:href="#BitstreamVeraSans-Roman-20"/>
     <use x="361.669921875" xlink:href="#BitstreamVeraSans-Roman-6e"/>
     <use x="425.048828125" xlink:href="#BitstreamVeraSans-Roman-65"/>
     <use x="486.572265625" xlink:href="#BitstreamVeraSans-Roman-74"/>
     <use x="525.78125" xlink:href="#BitstreamVeraSans-Roman-20"/>
     <use x="557.568359375" xlink:href="#BitstreamVeraSans-Roman-73"/>
     <use x="609.66796875" xlink:href="#BitstreamVeraSans-Roman-6f"/>
     <use x="670.849609375" xlink:href="#BitstreamVeraSans-Roman-6c"/>
     <use x="698.6328125" xlink:href="#BitstreamVeraSans-Roman-75"/>
     <use x="762.01171875" xlink:href="#BitstreamVeraSans-Roman-74"/>
     <use x="801.220703125" xlink:href="#BitstreamVeraSans-Roman-69"/>
     <use x="829.00390625" xlink:href="#BitstreamVeraSans-Roman-6f"/>
     <use x="890.185546875" xlink:href="#BitstreamVeraSans-Roman-6e"/>
     <use x="953.564453125" xlink:href="#BitstreamVeraSans-Roman-20"/>
     <use x="985.3515625" xlink:href="#BitstreamVeraSans-Roman-2d"/>
     <use x="1021.435546875" xlink:href="#BitstreamVeraSans-Roman-20"/>
     <use x="1053.22265625" xlink:href="#BitstreamVeraSans-Roman-6c"/>
     <use x="1081.005859375" xlink:href="#BitstreamVeraSans-Roman-6f"/>
     <use x="1142.1875" xlink:href="#BitstreamVeraSans-Roman-67"/>
     <use x="1205.6640625" xlink:href="#BitstreamVeraSans-Roman-20"/>
     <use x="1237.451171875" xlink:href="#BitstreamVeraSans-Roman-66"/>
     <use x="1272.65625" xlink:href="#BitstreamVeraSans-Roman-75"/>
     <use x="1336.03515625" xlink:href="#BitstreamVeraSans-Roman-6e"/>
     <use x="1399.4140625" xlink:href="#BitstreamVeraSans-Roman-63"/>
     <use x="1454.39453125" xlink:href="#BitstreamVeraSans-Roman-74"/>
     <use x="1493.603515625" xlink:href="#BitstreamVeraSans-Roman-69"/>
     <use x="1521.38671875" xlink:href="#BitstreamVeraSans-Roman-6f"/>
     <use x="1582.568359375" xlink:href="#BitstreamVeraSans-Roman-6e"/>
    </g>
   </g>
   <g id="legend_1">
    <g id="patch_7">
     <path d="M 383.6475 96.993 
L 511.2 96.993 
L 511.2 50.4 
L 383.6475 50.4 
z
" style="fill:#ffffff;stroke:#000000;stroke-linejoin:miter;"/>
    </g>
    <g id="line2d_32">
     <path d="M 393.7275 62.06175 
L 413.8875 62.06175 
" style="fill:none;stroke:#ff0000;stroke-linecap:square;stroke-width:2.0;"/>
    </g>
    <g id="line2d_33"/>
    <g id="text_19">
     <!-- Neural net -->
     <g transform="translate(429.7275 67.10175)scale(0.144 -0.144)">
      <use xlink:href="#BitstreamVeraSans-Roman-4e"/>
      <use x="74.8046875" xlink:href="#BitstreamVeraSans-Roman-65"/>
      <use x="136.328125" xlink:href="#BitstreamVeraSans-Roman-75"/>
      <use x="199.70703125" xlink:href="#BitstreamVeraSans-Roman-72"/>
      <use x="240.8203125" xlink:href="#BitstreamVeraSans-Roman-61"/>
      <use x="302.099609375" xlink:href="#BitstreamVeraSans-Roman-6c"/>
      <use x="329.8828125" xlink:href="#BitstreamVeraSans-Roman-20"/>
      <use x="361.669921875" xlink:href="#BitstreamVeraSans-Roman-6e"/>
      <use x="425.048828125" xlink:href="#BitstreamVeraSans-Roman-65"/>
      <use x="486.572265625" xlink:href="#BitstreamVeraSans-Roman-74"/>
     </g>
    </g>
    <g id="PathCollection_2">
     <path d="M 393.7275 86.694318 
C 394.320512 86.694318 394.889316 86.458712 395.308639 86.039389 
C 395.727962 85.620066 395.963568 85.051262 395.963568 84.45825 
C 395.963568 83.865238 395.727962 83.296434 395.308639 82.877111 
C 394.889316 82.457788 394.320512 82.222182 393.7275 82.222182 
C 393.134488 82.222182 392.565684 82.457788 392.146361 82.877111 
C 391.727038 83.296434 391.491432 83.865238 391.491432 84.45825 
C 391.491432 85.051262 391.727038 85.620066 392.146361 86.039389 
C 392.565684 86.458712 393.134488 86.694318 393.7275 86.694318 
z
" style="fill:#0000ff;stroke:#000000;"/>
     <path d="M 403.8075 85.434318 
C 404.400512 85.434318 404.969316 85.198712 405.388639 84.779389 
C 405.807962 84.360066 406.043568 83.791262 406.043568 83.19825 
C 406.043568 82.605238 405.807962 82.036434 405.388639 81.617111 
C 404.969316 81.197788 404.400512 80.962182 403.8075 80.962182 
C 403.214488 80.962182 402.645684 81.197788 402.226361 81.617111 
C 401.807038 82.036434 401.571432 82.605238 401.571432 83.19825 
C 401.571432 83.791262 401.807038 84.360066 402.226361 84.779389 
C 402.645684 85.198712 403.214488 85.434318 403.8075 85.434318 
z
" style="fill:#0000ff;stroke:#000000;"/>
     <path d="M 413.8875 87.324318 
C 414.480512 87.324318 415.049316 87.088712 415.468639 86.669389 
C 415.887962 86.250066 416.123568 85.681262 416.123568 85.08825 
C 416.123568 84.495238 415.887962 83.926434 415.468639 83.507111 
C 415.049316 83.087788 414.480512 82.852182 413.8875 82.852182 
C 413.294488 82.852182 412.725684 83.087788 412.306361 83.507111 
C 411.887038 83.926434 411.651432 84.495238 411.651432 85.08825 
C 411.651432 85.681262 411.887038 86.250066 412.306361 86.669389 
C 412.725684 87.088712 413.294488 87.324318 413.8875 87.324318 
z
" style="fill:#0000ff;stroke:#000000;"/>
    </g>
    <g id="text_20">
     <!-- Expected -->
     <defs>
      <path d="M 18.109375 8.203125 
L 18.109375 -20.796875 
L 9.078125 -20.796875 
L 9.078125 54.6875 
L 18.109375 54.6875 
L 18.109375 46.390625 
Q 20.953125 51.265625 25.265625 53.625 
Q 29.59375 56 35.59375 56 
Q 45.5625 56 51.78125 48.09375 
Q 58.015625 40.1875 58.015625 27.296875 
Q 58.015625 14.40625 51.78125 6.484375 
Q 45.5625 -1.421875 35.59375 -1.421875 
Q 29.59375 -1.421875 25.265625 0.953125 
Q 20.953125 3.328125 18.109375 8.203125 
M 48.6875 27.296875 
Q 48.6875 37.203125 44.609375 42.84375 
Q 40.53125 48.484375 33.40625 48.484375 
Q 26.265625 48.484375 22.1875 42.84375 
Q 18.109375 37.203125 18.109375 27.296875 
Q 18.109375 17.390625 22.1875 11.75 
Q 26.265625 6.109375 33.40625 6.109375 
Q 40.53125 6.109375 44.609375 11.75 
Q 48.6875 17.390625 48.6875 27.296875 
" id="BitstreamVeraSans-Roman-70"/>
      <path d="M 9.8125 72.90625 
L 55.90625 72.90625 
L 55.90625 64.59375 
L 19.671875 64.59375 
L 19.671875 43.015625 
L 54.390625 43.015625 
L 54.390625 34.71875 
L 19.671875 34.71875 
L 19.671875 8.296875 
L 56.78125 8.296875 
L 56.78125 0 
L 9.8125 0 
z
" id="BitstreamVeraSans-Roman-45"/>
      <path d="M 45.40625 46.390625 
L 45.40625 75.984375 
L 54.390625 75.984375 
L 54.390625 0 
L 45.40625 0 
L 45.40625 8.203125 
Q 42.578125 3.328125 38.25 0.953125 
Q 33.9375 -1.421875 27.875 -1.421875 
Q 17.96875 -1.421875 11.734375 6.484375 
Q 5.515625 14.40625 5.515625 27.296875 
Q 5.515625 40.1875 11.734375 48.09375 
Q 17.96875 56 27.875 56 
Q 33.9375 56 38.25 53.625 
Q 42.578125 51.265625 45.40625 46.390625 
M 14.796875 27.296875 
Q 14.796875 17.390625 18.875 11.75 
Q 22.953125 6.109375 30.078125 6.109375 
Q 37.203125 6.109375 41.296875 11.75 
Q 45.40625 17.390625 45.40625 27.296875 
Q 45.40625 37.203125 41.296875 42.84375 
Q 37.203125 48.484375 30.078125 48.484375 
Q 22.953125 48.484375 18.875 42.84375 
Q 14.796875 37.203125 14.796875 27.296875 
" id="BitstreamVeraSans-Roman-64"/>
     </defs>
     <g transform="translate(429.7275 88.23825)scale(0.144 -0.144)">
      <use xlink:href="#BitstreamVeraSans-Roman-45"/>
      <use x="63.18359375" xlink:href="#BitstreamVeraSans-Roman-78"/>
      <use x="122.36328125" xlink:href="#BitstreamVeraSans-Roman-70"/>
      <use x="185.83984375" xlink:href="#BitstreamVeraSans-Roman-65"/>
      <use x="247.36328125" xlink:href="#BitstreamVeraSans-Roman-63"/>
      <use x="302.34375" xlink:href="#BitstreamVeraSans-Roman-74"/>
      <use x="341.552734375" xlink:href="#BitstreamVeraSans-Roman-65"/>
      <use x="403.076171875" xlink:href="#BitstreamVeraSans-Roman-64"/>
     </g>
    </g>
   </g>
  </g>
 </g>
 <defs>
  <clipPath id="pb819e57f48">
   <rect height="345.6" width="446.4" x="72.0" y="43.2"/>
  </clipPath>
 </defs>
</svg>
