X 	 Y 	 expected Y
-0.5 	 -0.479426	 -0.479426
-0.3 	 -0.29552	 -0.29552
-0.1 	 -0.0998334	 -0.0998334
0.1 	 0.0998334	 0.0998334
0.3 	 0.29552	 0.29552
0.5 	 0.479426	 0.479426
0.7 	 0.644218	 0.644218
0.9 	 0.783327	 0.783327
1.1 	 0.891207	 0.891207
1.3 	 0.963558	 0.963558
1.5 	 0.997495	 0.997495
1.7 	 0.991665	 0.991665
1.9 	 0.9463	 0.9463
2.1 	 0.863209	 0.863209
2.3 	 0.745705	 0.745705
2.5 	 0.598472	 0.598472
2.7 	 0.42738	 0.42738
2.9 	 0.239249	 0.239249
3.1 	 0.0415808	 0.0415807
3.3 	 -0.157746	 -0.157746
3.5 	 -0.350783	 -0.350783
3.7 	 -0.529836	 -0.529836
3.9 	 -0.687766	 -0.687766
4.1 	 -0.818277	 -0.818277
4.3 	 -0.916166	 -0.916166
4.5 	 -0.97753	 -0.97753
4.7 	 -0.999923	 -0.999923
4.9 	 -0.982453	 -0.982453
5.1 	 -0.925815	 -0.925815
5.3 	 -0.832268	 -0.832267
5.5 	 -0.705541	 -0.70554
5.7 	 -0.550686	 -0.550686
5.9 	 -0.373877	 -0.373877
6.1 	 -0.182163	 -0.182163
6.3 	 0.0168139	 0.0168139
6.5 	 0.21512	 0.21512
6.7 	 0.40485	 0.40485
6.9 	 0.57844	 0.57844
7.1 	 0.728969	 0.728969
7.3 	 0.850437	 0.850437
7.5 	 0.938	 0.938
7.7 	 0.988168	 0.988168
7.9 	 0.998941	 0.998941
8.1 	 0.96989	 0.96989
8.3 	 0.902172	 0.902172
8.5 	 0.798487	 0.798487
8.7 	 0.662969	 0.662969
8.9 	 0.501021	 0.501021
9.1 	 0.319098	 0.319098
9.3 	 0.124455	 0.124454
9.5 	 -0.075151	 -0.0751511
9.7 	 -0.271761	 -0.271761
9.9 	 -0.457536	 -0.457536
