\relax 
\@writefile{lof}{\contentsline {figure}{\numberline {1}{\ignorespaces Results of the implemented function compared to the sine function calculated with math.h.}}{1}}
\newlabel{fig:sine}{{1}{1}}
