# m=1, S=4
0.0 0
0.076079935897 0.076079935897
0.149681820141 0.149262738988
0.221776036197 0.220161995232
0.292943647738 0.289026668239
0.363538157638 0.355889148637
0.433776795932 0.420652570295
0.503793898336 0.483144099136
0.573672868866 0.543148261848
0.643465618979 0.600428187109
0.713204509252 0.654739371668
0.782909732312 0.705838760239
0.852593895816 0.753490859281
0.922264874596 0.79747195733
0.991927588508 0.837573123943
1.06158511172 0.873602408602
1.1312393653 0.905386503038
1.20089154981 0.932772030932
1.27054241556 0.955626566334
1.34019243149 0.973839442916
1.40984189067 0.98732239172
1.47949097628 0.996010030025
1.54913980279 0.999860214737
1.61878844176 0.998854268268
1.68843693791 0.99299708167
1.75808531919 0.982317098091
1.82773360307 0.966866178769
1.89738180047 0.946719353491
1.9670299182 0.921974457483
2.03667796055 0.892751656954
2.10632593017 0.859192865845
2.17597382872 0.821461056763
2.24562165726 0.779739469556
2.31526941643 0.734230721391
2.38491710664 0.685155822704
2.45456472815 0.632753103809
2.5242122811 0.577277057388
2.59385976562 0.518997102489
2.66350718174 0.458196276028
2.73315452953 0.395169858171
2.80280180899 0.33022393825
2.87244902015 0.263673928188
2.94209616301 0.195843030663
3.01174323758 0.127060669424
3.08139024387 0.0576608894152
3.15103718188 -0.0120192655483
3.22068405161 -0.0816413896615
3.29033085306 -0.150867358619
3.35997758624 -0.219360971732
3.42962425114 -0.286789584703
3.49927084776 -0.352825725115
3.5689173761 -0.417148682811
3.63856383618 -0.479446067414
3.70821022797 -0.539415325446
3.7778565515 -0.596765209671
3.84750280675 -0.651217193518
3.91714899372 -0.702506823727
3.98679511243 -0.750385004644
4.05644116286 -0.794619207929
4.12608714502 -0.834994601799
4.19573305891 -0.871315094328
4.26537890453 -0.903404285738
4.33502468188 -0.931106325046
4.40467039096 -0.954286666923
4.47431603177 -0.97283272508
4.54396160432 -0.986654419005
4.61360710859 -0.995684611409
4.68325254459 -0.999879434247
4.75289791233 -0.999218501733
4.8225432118 -0.993705009318
4.892188443 -0.983365718148
4.96183360594 -0.968250825081
5.03147870061 -0.948433718888
5.10112372702 -0.924010623839
5.17076868516 -0.895100132377
5.24041357504 -0.861842629181
5.31005839665 -0.824399609397
5.37970315 -0.782952894349
5.44934783508 -0.73770374855
5.5189924519 -0.688871902288
5.58863700046 -0.636694484544
5.65828148076 -0.58142487142
5.7279258928 -0.523331455671
5.79757023657 -0.462696343318
5.86721451209 -0.399813983663
5.93685871934 -0.334989739382
6.00650285834 -0.268538403605
6.07614692907 -0.200782671221
6.14579093155 -0.132051571807
6.21543486577 -0.0626788717986
6.28507873173 0.0069985463305
6.35472252943 0.0766423200245
6.42436625887 0.145914249779
6.49400992006 0.21447794148
6.56365351299 0.282000439968
6.63329703767 0.348153845903
6.70294049409 0.412616908066
6.77258388226 0.47507658338
6.84222720217 0.535229557058
6.91187045382 0.592783715514
6.98151363723 0.647459564868
7.05115675238 0.698991588173
7.12079979927 0.74712953476
7.19044277792 0.791639635445
7.26008568831 0.832305737703
7.32972853045 0.86893035529
7.39937130434 0.901335627212
7.46901400998 0.929364181403
7.53865664737 0.952879898899
7.60829921651 0.971768574803
7.6779417174 0.985938472843
7.74758415004 0.995320770814
7.81722651444 0.999869894752
7.88686881058 0.999563740215
7.95651103848 0.9944037796
8.02615319813 0.984415054966
8.09579528953 0.969646056412
8.16543731269 0.95016848659
8.2350792676 0.9260769125
8.30472115426 0.897488306268
8.37436297269 0.864541477116
8.44400472286 0.827396397305
8.51364640479 0.786233425319
8.58328801848 0.741252430043
8.65292956393 0.692671820224
8.72257104113 0.640727483895
8.79221245009 0.585671642932
8.86185379081 0.527771628298
8.93149506328 0.467308581928
9.00113626752 0.404576091547
9.07077740351 0.339878765069
9.14041847127 0.273530751477
9.21005947078 0.20585421539
9.27970040206 0.137177772703
9.34934126509 0.067834894909
9.41898205989 -0.00183771014676
9.48862278645 -0.0715017332306
9.55826344477 -0.14081890645
9.62790403486 -0.209452645778
9.6975445567 -0.277069685401
9.76718501032 -0.343341695942
9.83682539569 -0.407946878714
9.90646571283 -0.470571528262
9.97610596174 -0.530911555591
10.0457461424 -0.588673964707
10.1153862548 -0.643578275286
10.185026299 -0.695357884563
10.254666275 -0.743761361839
10.3243061828 -0.788553669315
10.3939460223 -0.82951730332
10.4635857935 -0.866453350401
10.5332254966 -0.899182453144
10.6028651314 -0.927545681032
10.672504698 -0.951405302127
10.7421441963 -0.970645451804
10.8117836264 -0.985172695322
10.8814229883 -0.994916481469
10.951062282 -0.999829485107
11.0207015074 -0.999887836936
11.0903406646 -0.995091239363
11.1599797536 -0.985462967932
11.2296187743 -0.97104975828
11.2992577269 -0.951921579193
11.3688966112 -0.928171292855
11.4385354272 -0.899914203934
11.5081741751 -0.867287499709
11.5778128547 -0.83044958394
11.6474514661 -0.78957930774
11.7170900093 -0.744875101149
11.7867284842 -0.696554009666
11.8563668909 -0.644850640386
11.9260052294 -0.590016022876
11.9956434997 -0.532316390319
12.0652817018 -0.472031886841
12.1349198356 -0.409455207297
12.2045579012 -0.344890176126
12.2741958986 -0.278650272173
12.3438338278 -0.211057106637
12.4134716888 -0.142438861539
12.4831094815 -0.0731286962927
12.552747206 -0.00346313011525
12.5663706144 0.0101677732001

# m=2, S=6
0.0 1
0.076079935897 0.997105921677
0.149681820141 0.988805515314
0.221776036197 0.975474839259
0.292943647738 0.957336129311
0.363538157638 0.934546950415
0.433776795932 0.907244503283
0.503793898336 0.875567793902
0.573672868866 0.839668451995
0.643465618979 0.799715616825
0.713204509252 0.755897707791
0.782909732312 0.708422569102
0.852593895816 0.657516777098
0.922264874596 0.603424523324
0.991927588508 0.546406284971
1.06158511172 0.486737387411
1.1312393653 0.424706508163
1.20089154981 0.360614144131
1.27054241556 0.294771051185
1.34019243149 0.22749666005
1.40984189067 0.159117471008
1.47949097628 0.0899654301881
1.54913980279 0.0203762910938
1.61878844176 -0.0493120340347
1.68843693791 -0.118761127499
1.75808531919 -0.187633717853
1.82773360307 -0.255595323312
1.89738180047 -0.322315879764
1.9670299182 -0.387471346107
2.03667796055 -0.45074527951
2.10632593017 -0.511830373248
2.17597382872 -0.570429949802
2.24562165726 -0.626259402124
2.31526941643 -0.679047576118
2.38491710664 -0.728538087698
2.45456472815 -0.774490568044
2.5242122811 -0.81668183104
2.59385976562 -0.854906957234
2.66350718174 -0.888980289064
2.73315452953 -0.918736332527
2.80280180899 -0.944030560911
2.87244902015 -0.964740116688
2.94209616301 -0.980764408169
3.01174323758 -0.992025598019
3.08139024387 -0.998468981257
3.15103718188 -1.00006325091
3.22068405161 -0.996800650055
3.29033085306 -0.98869700943
3.35997758624 -0.975791670562
3.42962425114 -0.95814729467
3.49927084776 -0.935849558318
3.5689173761 -0.909006737311
3.63856383618 -0.877749180827
3.70821022797 -0.842228678352
3.7778565515 -0.802617722498
3.84750280675 -0.759108671269
3.91714899372 -0.711912813865
3.98679511243 -0.661259344542
4.05644116286 -0.60739424952
4.12608714502 -0.550579112354
4.19573305891 -0.491089843547
4.26537890453 -0.429215340601
4.33502468188 -0.365256084993
4.40467039096 -0.299522682909
4.47431603177 -0.232334356798
4.54396160432 -0.164017395103
4.61360710859 -0.0949035676674
4.68325254459 -0.0253285145333
4.75289791233 0.0443698840496
4.8225432118 0.113853148493
4.892188443 0.182783843645
4.96183360594 0.250827217482
5.03147870061 0.317652826774
5.10112372702 0.382936141817
5.17076868516 0.446360122439
5.24041357504 0.507616757632
5.31005839665 0.56640856134
5.37970315 0.622450017113
5.44934783508 0.675468964647
5.5189924519 0.725207921447
5.58863700046 0.77142533321
5.65828148076 0.81389674686
5.7279258928 0.85241590052
5.79757023657 0.886795725151
5.86721451209 0.916869252977
5.93685871934 0.942490428296
6.00650285834 0.963534816732
6.07614692907 0.979900209491
6.14579093155 0.991507119679
6.21543486577 0.998299168286
6.28507873173 1.00024335794
6.35472252943 0.997330233146
6.42436625887 0.989573926137
6.49400992006 0.977012088269
6.56365351299 0.959705707132
6.63329703767 0.937738810371
6.70294049409 0.911218057619
6.77258388226 0.880272222525
6.84222720217 0.845051567397
6.91187045382 0.805727113498
6.98151363723 0.762489810536
7.05115675238 0.715549609386
7.12079979927 0.665134442537
7.19044277792 0.611489117232
7.26008568831 0.554874126662
7.32972853045 0.495564384993
7.39937130434 0.433847892368
7.46901400998 0.37002433637
7.53865664737 0.30440363673
7.60829921651 0.237304440362
7.6779417174 0.169052574012
7.74758415004 0.099979462053
7.81722651444 0.0304205171035
7.88686881058 -0.0392864887186
7.95651103848 -0.108803063993
8.02615319813 -0.177791641685
8.09579528953 -0.245917218333
8.16543731269 -0.312848980793
8.2350792676 -0.378261912621
8.30472115426 -0.441838372308
8.37436297269 -0.503269635699
8.44400472286 -0.5622573951
8.51364640479 -0.618515207809
8.58328801848 -0.67176988702
8.65292956393 -0.72176282836
8.72257104113 -0.76825126561
8.79221245009 -0.811009449515
8.86185379081 -0.84982974396
8.93149506328 -0.884523634191
9.00113626752 -0.914922642181
9.07077740351 -0.940879144702
9.14041847127 -0.962267090126
9.21005947078 -0.978982610482
9.27970040206 -0.990944525785
9.34934126509 -0.998094738208
9.41898205989 -1.00039851416
9.48862278645 -0.997844652932
9.55826344477 -0.990445541037
9.62790403486 -0.978237092067
9.6975445567 -0.961278572271
9.76718501032 -0.939652312758
9.83682539569 -0.913463309701
9.90646571283 -0.882838714491
9.97610596174 -0.847927216309
10.0457461424 -0.808898320129
10.1153862548 -0.765941523641
10.185026299 -0.719265397105
10.254666275 -0.669096570594
10.3243061828 -0.615678633554
10.3939460223 -0.559270952017
10.4635857935 -0.50014740921
10.5332254966 -0.438595075685
10.6028651314 -0.374912815415
10.672504698 -0.309409834632
10.7421441963 -0.242404180457
10.8117836264 -0.174221196601
10.8814229883 -0.105191943643
10.951062282 -0.0356515915544
11.0207015074 0.0340622077195
11.0903406646 0.103610959733
11.1599797536 0.172656971096
11.2296187743 0.24086498913
11.2992577269 0.307903829681
11.3688966112 0.373447985159
11.4385354272 0.43717920502
11.5081741751 0.498788041007
11.5778128547 0.557975349638
11.6474514661 0.61445374467
11.7170900093 0.667948992461
11.7867284842 0.71820134347
11.8563668909 0.764966793432
11.9260052294 0.80801826807
11.9956434997 0.847146725615
12.0652817018 0.882162171756
12.1349198356 0.912894582112
12.2045579012 0.939194727741
12.2741958986 0.960934899671
12.3438338278 0.978009528953
12.4134716888 0.990335699202
12.4831094815 0.997853549168
12.552747206 1.00052656335
12.5663706144 1.00048089549
