\relax 
\@writefile{toc}{\contentsline {section}{\numberline {1}Introduction}{1}}
\newlabel{eq:erf}{{1}{1}}
\newlabel{eq:density}{{2}{1}}
\newlabel{eq:chanceerror}{{3}{1}}
\@writefile{toc}{\contentsline {section}{\numberline {2}Derived and related functions}{1}}
\@writefile{toc}{\contentsline {subsection}{\numberline {2.1}Complementary error function}{1}}
\newlabel{eq:comperf}{{4}{1}}
\@writefile{lof}{\contentsline {figure}{\numberline {1}{\ignorespaces Error function}}{1}}
\newlabel{fig:error}{{1}{1}}
